Chapter 9 ggplot visualization | R로 배우는 데이터과학
…
library(tidyverse)

## Warning: package 'ggplot2' was built under R version 4.0.2

## Warning: package 'tibble' was built under R version 4.0.2

## Warning: package 'tidyr' was built under R version 4.0.2

## Warning: package 'readr' was built under R version 4.0.2

## Warning: package 'dplyr' was built under R version 4.0.2

mpg

## # A tibble: 234 x 11
##    manufacturer model    displ  year   cyl trans   drv     cty   hwy fl    class
##    <chr>        <chr>    <dbl> <int> <int> <chr>   <chr> <int> <int> <chr> <chr>
##  1 audi         a4         1.8  1999     4 auto(l… f        18    29 p     comp…
##  2 audi         a4         1.8  1999     4 manual… f        21    29 p     comp…
##  3 audi         a4         2    2008     4 manual… f        20    31 p     comp…
##  4 audi         a4         2    2008     4 auto(a… f        21    30 p     comp…
##  5 audi         a4         2.8  1999     6 auto(l… f        16    26 p     comp…
##  6 audi         a4         2.8  1999     6 manual… f        18    26 p     comp…
##  7 audi         a4         3.1  2008     6 auto(a… f        18    27 p     comp…
##  8 audi         a4 quat…   1.8  1999     4 manual… 4        18    26 p     comp…
##  9 audi         a4 quat…   1.8  1999     4 auto(l… 4        16    25 p     comp…
## 10 audi         a4 quat…   2    2008     4 manual… 4        20    28 p     comp…
## # … with 224 more rows
…
economics

## # A tibble: 574 x 6
##    date         pce    pop psavert uempmed unemploy
##    <date>     <dbl>  <dbl>   <dbl>   <dbl>    <dbl>
##  1 1967-07-01  507. 198712    12.6     4.5     2944
##  2 1967-08-01  510. 198911    12.6     4.7     2945
##  3 1967-09-01  516. 199113    11.9     4.6     2958
##  4 1967-10-01  512. 199311    12.9     4.9     3143
##  5 1967-11-01  517. 199498    12.8     4.7     3066
##  6 1967-12-01  525. 199657    11.8     4.8     3018
##  7 1968-01-01  531. 199808    11.7     5.1     2878
##  8 1968-02-01  534. 199920    12.3     4.5     3001
##  9 1968-03-01  544. 200056    11.7     4.1     2877
## 10 1968-04-01  544  200208    12.3     4.6     2709
## # … with 564 more rows
…
bike <- bike %>% mutate(hour=format(datetime,"%H") )
bike

## # A tibble: 10,886 x 13
##    datetime            season holiday workingday weather  temp atemp humidity
##    <dttm>               <dbl>   <dbl>      <dbl>   <dbl> <dbl> <dbl>    <dbl>
##  1 2011-01-01 00:00:00      1       0          0       1  9.84  14.4       81
##  2 2011-01-01 01:00:00      1       0          0       1  9.02  13.6       80
##  3 2011-01-01 02:00:00      1       0          0       1  9.02  13.6       80
##  4 2011-01-01 03:00:00      1       0          0       1  9.84  14.4       75
##  5 2011-01-01 04:00:00      1       0          0       1  9.84  14.4       75
##  6 2011-01-01 05:00:00      1       0          0       2  9.84  12.9       75
##  7 2011-01-01 06:00:00      1       0          0       1  9.02  13.6       80
##  8 2011-01-01 07:00:00      1       0          0       1  8.2   12.9       86
##  9 2011-01-01 08:00:00      1       0          0       1  9.84  14.4       75
## 10 2011-01-01 09:00:00      1       0          0       1 13.1   17.4       76
## # … with 10,876 more rows, and 5 more variables: windspeed <dbl>, casual <dbl>,
## #   registered <dbl>, count <dbl>, hour <chr>
…
