Chapter 10 Modeling | R로 배우는 데이터과학
…
scale.computer.df <- computer  %>% 
  mutate(price_scal = scale(price),
         hd_scal = scale(hd),
         ram_scal = scale(ram),
         screen_scal = scale(screen),
         ads_scal = scale(ads),
         trend_scal = scale(trend))  %>% 
  select(-c(price, speed, hd, ram, screen, ads, trend)) # 정규화 한 다음 원래 값을 날립니다.

scale.computer.df

## # A tibble: 6,259 x 6
##    price_scal[,1] hd_scal[,1] ram_scal[,1] screen_scal[,1] ads_scal[,1]
##             <dbl>       <dbl>        <dbl>           <dbl>        <dbl>
##  1       -1.24         -1.30       -0.761           -0.673        -1.70
##  2       -0.731        -1.28       -1.12            -0.673        -1.70
##  3       -1.08         -0.954      -0.761            0.432        -1.70
##  4       -0.638        -0.954      -0.0510          -0.673        -1.70
##  5        1.85         -0.296       1.37            -0.673        -1.70
##  6        2.54         -0.296       1.37            -0.673        -1.70
##  7       -0.860        -0.954      -0.761           -0.673        -1.70
##  8       -0.387        -1.28       -1.12            -0.673        -1.70
##  9        0.00934      -0.799      -0.0510          -0.673        -1.70
## 10        0.612        -0.799      -0.761            0.432        -1.70
## # … with 6,249 more rows, and 1 more variable: trend_scal[,1] <dbl>
…
10.4.7 테스트 데이터로 스코어링

xgb.pred = predict(xgb.fit,test.data,reshape=T)
xgb.pred = as_tibble(xgb.pred)
#xgb.pred = as.data.frame(xgb.pred)
colnames(xgb.pred) = levels(species)
xgb.pred

## # A tibble: 38 x 3
##    setosa versicolor virginica
##     <dbl>      <dbl>     <dbl>
##  1  0.896     0.0607    0.0432
##  2  0.896     0.0607    0.0432
##  3  0.896     0.0607    0.0432
##  4  0.896     0.0607    0.0432
##  5  0.896     0.0609    0.0432
##  6  0.896     0.0607    0.0432
##  7  0.896     0.0607    0.0432
##  8  0.896     0.0607    0.0432
##  9  0.896     0.0607    0.0432
## 10  0.896     0.0609    0.0432
## # … with 28 more rows

10.4.8 Identify the class with the highest probability for each prediction

xgb.pred$prediction = apply(xgb.pred,1,function(x) colnames(xgb.pred)[which.max(x)])
test.label

##  [1] 0 0 0 0 0 0 0 0 0 0 0 0 0 1 1 1 1 1 1 1 1 1 1 1 1 1 1 2 2 2 2 2 2 2 2 2 2 2

xgb.pred$label = levels(species)[test.label+1] # levels(species) 가 1부터 시작

xgb.pred

## # A tibble: 38 x 5
##    setosa versicolor virginica prediction label 
##     <dbl>      <dbl>     <dbl> <chr>      <chr> 
##  1  0.896     0.0607    0.0432 setosa     setosa
##  2  0.896     0.0607    0.0432 setosa     setosa
##  3  0.896     0.0607    0.0432 setosa     setosa
##  4  0.896     0.0607    0.0432 setosa     setosa
##  5  0.896     0.0609    0.0432 setosa     setosa
##  6  0.896     0.0607    0.0432 setosa     setosa
##  7  0.896     0.0607    0.0432 setosa     setosa
##  8  0.896     0.0607    0.0432 setosa     setosa
##  9  0.896     0.0607    0.0432 setosa     setosa
## 10  0.896     0.0609    0.0432 setosa     setosa
## # … with 28 more rows
…
